Adding nodes and ties and their attributes — add • manynet
…
    Other manipulations: 
from,
miss,
reformat,
split(),
tidy,
transform()

    Examples

  other <- create_filled(4) %>% mutate(name = c("A", "B", "C", "D"))
  add_nodes(other, 4, list(name = c("Matthew", "Mark", "Luke", "Tim")))
#> # A labelled, undirected network with 8 nodes and 6 ties
#> # A tibble: 8 × 1
#>   name   
#>   <chr>  
#> 1 A      
#> 2 B      
#> 3 C      
#> 4 D      
#> 5 Matthew
#> 6 Mark   
#> # ℹ 2 more rows
…
