Modifying node data — add_nodes • manynet
…
    Examples

  other <- create_filled(4) %>% mutate(name = c("A", "B", "C", "D"))
  add_nodes(other, 4, list(name = c("Matthew", "Mark", "Luke", "Tim")))
#> # A labelled, undirected network with 8 nodes and 6 ties
#> # A tibble: 8 × 1
#>   name   
#>   <chr>  
#> 1 A      
#> 2 B      
#> 3 C      
#> 4 D      
#> 5 Matthew
#> 6 Mark   
#> # ℹ 2 more rows
#> # A tibble: 6 × 2
#>    from    to
#>   <int> <int>
#> 1     1     2
#> 2     1     3
#> 3     1     4
#> 4     2     3
#> 5     2     4
#> 6     3     4
  other <- create_filled(4) %>% mutate(name = c("A", "B", "C", "D"))
  another <- create_filled(3) %>% mutate(name = c("E", "F", "G"))
  join_nodes(another, other)
#> Joining with `by = join_by(name)`
#> # A labelled, undirected network with 7 nodes and 3 ties
#> # A tibble: 7 × 1
#>   name 
#>   <chr>
#> 1 E    
#> 2 F    
#> 3 G    
#> 4 A    
#> 5 B    
#> 6 C    
#> # ℹ 1 more row
…
