Coercing into graph objects — coerce_graph • manynet
…
  bind_changes(create_filled(4), events)
#> ── # Filled network ────────────────────────────────────────────────────────────
#> # A undirected network of 4 nodes and 6 ties
#> 
#> ── Nodes 
#> # A tibble: 4 × 1
#>   diffusion
#>   <chr>    
#> 1 S        
#> 2 S        
#> 3 S        
#> 4 S        
#> 
#> ── Changes 
#> # A tibble: 5 × 4
#>    time  node var       value
#>   <dbl> <dbl> <chr>     <chr>
#> 1     0     1 diffusion I    
#> 2     1     2 diffusion I    
#> 3     1     3 diffusion I    
#> 4     2     2 diffusion R    
#> # ℹ 1 more row
#> 
#> ── Ties 
#> # A tibble: 6 × 2
#>    from    to
#>   <int> <int>
#> 1     1     2
#> 2     1     3
#> 3     1     4
#> 4     2     3
#> # ℹ 2 more rows
…
