One-mode multiplex network of relationships between 9/11 hijackers (Krebs 2002) — irps_911 • manynet
…
data(irps_911)

    Format

#> -- # 911 Terrorist network -----------------------------------------------------
#> # A labelled, complex, multiplex, undirected network of 60 terrorists and 153
#> association ties and 153 trust ties
#>
#> -- Nodes
#> # A tibble: 60 x 3
#>   name              hijacker target
#>   <chr>             <lgl>    <chr>
#> 1 Majed Moqed       TRUE     Pentagon
#> 2 Khalid Al Mihdhar TRUE     Pentagon
#> 3 Hani Hanjour      TRUE     Pentagon
#> 4 Nawaf Alhazmi     TRUE     Pentagon
#> 5 Salem Alhazmi     TRUE     Pentagon
#> 6 Ahmed Alnami      TRUE     Pennsylvania
#> # i 54 more rows
#>
#> -- Ties
#> # A tibble: 153 x 3
#>    from    to type
#>   <int> <int> <chr>
#> 1     1     3 association
#> 2     1     3 trust
#> 3     2     3 association
#> 4     2     3 trust
#> 5     2     4 association
#> 6     2     4 trust
#> # i 147 more rows
…
