One-mode, weighted network of emotional transitions (Trampe et al. 2015) — ison_emotions • manynet
…
data(ison_emotions)

    Format

#> -- # Emotional transitions -----------------------------------------------------
#> # A labelled, complex, weighted, directed network of 18 emotions and 315
#> transition arcs
#>
#> -- Nodes
#> # A tibble: 18 x 1
#>   name
#>   <chr>
#> 1 Alertness
#> 2 Amusement
#> 3 Anger
#> 4 Anxiety
#> 5 Awe
#> 6 Disdain
#> # i 12 more rows
#>
#> -- Ties
#> # A tibble: 315 x 3
#>    from    to weight
#>   <int> <int>  <int>
#> 1     1     1   6191
#> 2     1     2     97
#> 3     1     3    214
#> 4     1     4   4784
#> 5     1     5     14
#> 6     1     6     82
#> # i 309 more rows
…
