Multiplex network of three one-mode signed, weighted networks and a three-wave longitudinal network of monks (Sampson 1969) — ison_monks • manynet
…
Information about senior monks was not included.
While type = "like" is observed over three waves,
the rest of the data was recorded retrospectively from the end of the study,
after the network fragmented.
The waves in which the novitiates were expelled (1), voluntarily departed (2 and 3),
or remained (4) are given in the nodal attribute "left".

data(ison_monks)

    Format

#> # A longitudinal, labelled, multiplex, signed, weighted, directed network of 18
#> nodes and 463 like, esteem, influence, and praise arcs
#> # A tibble: 18 x 3
#>   name        groups        left
#>   <chr>       <chr>        <dbl>
#> 1 Romuald     Interstitial     3
#> 2 Bonaventure Loyal            4
#> 3 Ambrose     Loyal            4
#> 4 Berthold    Loyal            4
#> 5 Peter       Loyal            3
#> 6 Louis       Loyal            4
#> # i 12 more rows
#> # A tibble: 463 x 6
#>    from    to  sign type  weight  wave
#>   <int> <int> <dbl> <chr>  <dbl> <dbl>
#> 1     1     2     1 like       1     2
#> 2     1     2     1 like       1     3
#> 3     1     3     1 like       1     3
#> 4     1     5     1 like       3     1
#> 5     1     5     1 like       3     2
#> 6     1     5     1 like       3     3
#> # i 457 more rows
…
