Making learning models on networks — learning • manynet
…
#> 9         0.170        0.170       0.170          0.170           0.170
#> # ℹ 27 more variables: `Carol Barner-Barry` <dbl>, `Gary Coombs` <dbl>,
#> #   `Russ Bernard` <dbl>, `John Boyd` <dbl>, `Ron Burt` <dbl>,
#> #   `Pat Doreian` <dbl>, `Claude Fischer` <dbl>, `Brian Foster` <dbl>,
#> #   `Mark Granovetter` <dbl>, `Maureen Hallinan` <dbl>, `Paul Holland` <dbl>,
#> #   `Jack Hunter` <dbl>, `Davor Jedlicka` <dbl>, `Charles Kadushin` <dbl>,
#> #   `Ed Laumann` <dbl>, `Sam Leinhardt` <dbl>, `Joel Levine` <dbl>,
#> #   `Nan Lin` <dbl>, `Nick Mullins` <dbl>, `Don Ploch` <dbl>, …
  startValues <- rbinom(100,1,prob = 0.5)
  startValues[sample(seq_len(100), round(100*0.2))] <- NA
  latticeEg <- create_lattice(100)
  latticeEg <- add_node_attribute(latticeEg, "startValues", startValues)
  latticeEg
#> # A undirected network with 100 nodes and 342 ties
#> # A tibble: 100 × 1
#>   startValues
#>         <int>
#> 1           0
#> 2           1
#> 3           0
#> 4           1
#> 5           0
#> 6           1
#> # ℹ 94 more rows
#> # A tibble: 342 × 2
#>    from    to
#>   <int> <int>
#> 1     1     2
#> 2     1    11
#> 3     1    12
#> 4     2     3
#> 5     2    11
#> 6     2    12
#> # ℹ 336 more rows
…
#> [1] "Moving node 13 to node 90"
#> [1] "Moving node 3 to node 4"
#> [1] "Moving node 19 to node 39"
#> [1] "Moving node 40 to node 51"
#> [1] "Moving node 42 to node 40"
#> [1] "Moving node 44 to node 77"
#> [1] "Moving node 47 to node 25"
#> [1] "Moving node 52 to node 14"
#> [1] "Moving node 61 to node 37"
#> [1] "Moving node 73 to node 13"
#> [1] "Moving node 87 to node 24"
#> [1] "Moving node 95 to node 44"
#> [1] "Moving node 96 to node 47"
#> # A undirected network with 100 nodes and 342 ties
#> # A tibble: 100 × 1
#>   startValues
#>         <int>
#> 1          NA
#> 2           1
#> 3          NA
#> 4           0
#> 5           0
#> 6           1
#> # ℹ 94 more rows
#> # A tibble: 342 × 2
#>    from    to
#>   <int> <int>
#> 1     1     2
#> 2     1    11
#> 3     1    12
#> 4     2     3
#> 5     2    11
#> 6     2    12
#> # ℹ 336 more rows
…
