Making networks with explicit ties — make_explicit • manynet
…
    Examples

  create_explicit(A -+ B, B -+ C, A +-+ C, D, E:F:G-+A, E:F+-+G:H)
#> # A labelled, directed network of 8 nodes and 15 arcs
#> 
#> ── Nodes 
#> # A tibble: 8 × 1
#>   name 
#>   <chr>
#> 1 A    
#> 2 B    
#> 3 C    
#> 4 D    
#> 5 E    
#> 6 F    
#> # ℹ 2 more rows
#> 
#> ── Ties 
#> # A tibble: 15 × 2
#>    from    to
#>   <int> <int>
#> 1     1     2
#> 2     2     3
#> 3     3     1
#> 4     1     3
#> 5     5     1
#> 6     6     1
#> # ℹ 9 more rows
…
