Making networks with a stochastic element — make_stochastic • manynet
…
generate_fire(10)
#> # A undirected network of 10 nodes and 9 ties
#> # A tibble: 9 × 2
#>    from    to
#>   <int> <int>
#> 1     1     2
#> 2     2     3
#> 3     3     4
#> 4     2     5
#> 5     5     6
#> 6     6     7
#> # ℹ 3 more rows
generate_islands(10)
#> # A undirected network of 10 nodes and 10 ties
#> # A tibble: 10 × 2
#>    from    to
#>   <int> <int>
#> 1     1     4
#> 2     2     5
#> 3     4     5
#> 4     2     6
#> 5     6     7
#> 6     7     8
#> # ℹ 4 more rows
generate_citations(10)
#> # A undirected network of 10 nodes and 9 ties
#> # A tibble: 9 × 2
#>    from    to
#>   <int> <int>
#> 1     1     2
#> 2     1     3
#> 3     1     4
#> 4     1     5
#> 5     1     6
#> 6     6     7
#> # ℹ 3 more rows
…
