Making learning models on networks — make_learning • manynet
…
#> #   `Mark Granovetter` <dbl>, `Maureen Hallinan` <dbl>, `Paul Holland` <dbl>,
#> #   `Jack Hunter` <dbl>, `Davor Jedlicka` <dbl>, `Charles Kadushin` <dbl>,
#> #   `Ed Laumann` <dbl>, `Sam Leinhardt` <dbl>, `Joel Levine` <dbl>,
#> #   `Nan Lin` <dbl>, `Nick Mullins` <dbl>, `Don Ploch` <dbl>, …
  startValues <- rbinom(100,1,prob = 0.5)
  startValues[sample(seq_len(100), round(100*0.2))] <- NA
  latticeEg <- create_lattice(100)
  latticeEg <- add_node_attribute(latticeEg, "startValues", startValues)
  latticeEg
#> 
#> ── # Lattice network ───────────────────────────────────────────────────────────
#> # A undirected network of 100 nodes and 342 ties
#> 
#> ── Nodes 
#> # A tibble: 100 × 1
#>   startValues
#>         <int>
#> 1           1
#> 2           1
#> 3          NA
#> 4          NA
#> 5           1
#> 6           1
#> # ℹ 94 more rows
#> 
#> ── Ties 
#> # A tibble: 342 × 2
#>    from    to
#>   <int> <int>
#> 1     1     2
#> 2     1    11
#> 3     1    12
#> 4     2     3
#> 5     2    11
#> 6     2    12
#> # ℹ 336 more rows
#> 
  play_segregation(latticeEg, "startValues", 0.5)
#> [1] "Moving node 11 to node 76"
#> [1] "Moving node 15 to node 34"
#> [1] "Moving node 46 to node 48"
#> [1] "Moving node 50 to node 65"
#> [1] "Moving node 52 to node 17"
#> ── # Lattice network ───────────────────────────────────────────────────────────
#> # A undirected network of 100 nodes and 342 ties
#> 
#> ── Nodes 
#> # A tibble: 100 × 1
#>   startValues
#>   <node_msr> 
#> 1  1         
#> 2  1         
#> 3 NA         
#> 4 NA         
#> 5  1         
#> 6  1         
#> # ℹ 94 more rows
#> 
#> ── Ties 
#> # A tibble: 342 × 2
#>    from    to
#>   <int> <int>
#> 1     1     2
#> 2     1    11
#> 3     1    12
#> 4     2     3
#> 5     2    11
#> 6     2    12
#> # ℹ 336 more rows
…
