Making networks with defined structures — make_create • manynet
…
    Examples

create_empty(10)
#> # A undirected network of 10 nodes and 0 ties 
#> # A tibble: 0 × 2
#> # ℹ 2 variables: from <int>, to <int>
create_filled(10)
#> # A undirected network of 10 nodes and 45 ties 
#> # A tibble: 45 × 2
#>    from    to
#>   <int> <int>
#> 1     1     2
#> 2     1     3
#> 3     1     4
#> 4     1     5
#> 5     1     6
#> 6     1     7
#> # ℹ 39 more rows
create_ring(8, width = 2)
#> # A undirected network of 8 nodes and 16 ties 
#> # A tibble: 16 × 2
#>    from    to
#>   <int> <int>
#> 1     1     2
#> 2     1     3
#> 3     1     7
#> 4     1     8
#> 5     2     3
#> 6     2     4
#> # ℹ 10 more rows
create_star(12)
#> # A undirected network of 12 nodes and 11 ties 
#> # A tibble: 11 × 2
#>    from    to
#>   <int> <int>
#> 1     1     2
#> 2     1     3
#> 3     1     4
#> 4     1     5
#> 5     1     6
#> 6     1     7
#> # ℹ 5 more rows
create_tree(c(7,8))
#> # A two-mode network of 15 nodes and 14 ties 
#> # A tibble: 15 × 1
#>   type 
#>   <lgl>
#> 1 FALSE
#> 2 FALSE
#> 3 FALSE
#> 4 FALSE
#> 5 FALSE
#> 6 FALSE
#> # ℹ 9 more rows
#> # A tibble: 14 × 2
#>    from    to
#>   <int> <int>
#> 1     1     8
#> 2     1     9
#> 3     1    10
#> 4     2     8
#> 5     2    11
#> 6     2    12
#> # ℹ 8 more rows
create_lattice(12, width = 4)
#> # A undirected network of 12 nodes and 17 ties 
#> # A tibble: 17 × 2
#>    from    to
#>   <int> <int>
#> 1     1     2
#> 2     1     4
#> 3     2     3
#> 4     2     5
#> 5     3     6
#> 6     4     5
#> # ℹ 11 more rows
create_components(10, membership = c(1,1,1,2,2,2,3,3,3,3))
#> # A undirected network of 10 nodes and 12 ties 
#> # A tibble: 12 × 2
#>    from    to
#>   <int> <int>
#> 1     1     2
#> 2     1     3
#> 3     2     3
#> 4     4     5
#> 5     4     6
#> 6     5     6
#> # ℹ 6 more rows
create_degree(10, outdegree = rep(1:5, 2))
#> # A undirected network of 10 nodes and 15 ties 
#> # A tibble: 15 × 2
#>    from    to
#>   <int> <int>
#> 1     5     6
#> 2     1    10
#> 3     7    10
#> 4     5     7
#> 5     2     4
#> 6     2     9
#> # ℹ 9 more rows
create_core(6)
#> # A undirected network of 6 nodes and 12 ties 
#> # A tibble: 12 × 2
#>    from    to
#>   <int> <int>
#> 1     1     2
#> 2     1     3
#> 3     1     4
#> 4     1     5
#> 5     1     6
#> 6     2     3
#> # ℹ 6 more rows
…
