Manipulating number of ties — manip_ties_num • manynet
…
#>    from    to weight
#>   <int> <int>  <dbl>
#> 1     1     2      1
#> 2     1     3      2
#> 3     1     4      2
#> 4     2     3      2
#> 5     2     4      1
#> 6     3     4      2
#> 
ison_adolescents |> add_ties(c("Betty","Tina"))
#> ── # The Adolescent Society ────────────────────────────────────────────────────
#> # A labelled, undirected network of 8 adolescents and 11 friendships ties
#> 
#> ── Nodes 
#> # A tibble: 8 × 1
#>   name 
#>   <chr>
#> 1 Betty
#> 2 Sue  
#> 3 Alice
#> 4 Jane 
#> 5 Dale 
#> 6 Pam  
#> # ℹ 2 more rows
#> 
#> ── Ties 
#> # A tibble: 11 × 2
#>    from    to
#>   <int> <int>
#> 1     1     2
#> 2     2     3
#> 3     3     4
#> 4     2     5
#> 5     3     5
#> 6     4     5
#> # ℹ 5 more rows
#> 
delete_ties(ison_adolescents, 3)
#> ── # The Adolescent Society ────────────────────────────────────────────────────
#> # A labelled, undirected network of 8 adolescents and 9 friendships ties
#> 
#> ── Nodes 
#> # A tibble: 8 × 1
#>   name 
#>   <chr>
#> 1 Betty
#> 2 Sue  
#> 3 Alice
#> 4 Jane 
#> 5 Dale 
#> 6 Pam  
#> # ℹ 2 more rows
#> 
#> ── Ties 
#> # A tibble: 9 × 2
#>    from    to
#>   <int> <int>
#> 1     1     2
#> 2     2     3
#> 3     2     5
#> 4     3     5
#> 5     4     5
#> 6     2     6
#> # ℹ 3 more rows
#> 
delete_ties(ison_adolescents, "Alice|Sue")
#> ── # The Adolescent Society ────────────────────────────────────────────────────
#> # A labelled, undirected network of 8 adolescents and 9 friendships ties
#> 
#> ── Nodes 
#> # A tibble: 8 × 1
#>   name 
#>   <chr>
#> 1 Betty
#> 2 Sue  
#> 3 Alice
#> 4 Jane 
#> 5 Dale 
#> 6 Pam  
#> # ℹ 2 more rows
#> 
#> ── Ties 
#> # A tibble: 9 × 2
#>    from    to
#>   <int> <int>
#> 1     1     2
#> 2     3     4
#> 3     2     5
#> 4     3     5
#> 5     4     5
#> 6     2     6
#> # ℹ 3 more rows
…
