Splitting networks into lists — manip_split • manynet
…
#> ── # The Adolescent Society ────────────────────────────────────────────────────
#> # A labelled, undirected network of 5 adolescents and 7 friendships ties
#> 
#> ── Nodes 
#> # A tibble: 5 × 1
#>   name 
#>   <chr>
#> 1 Sue  
#> 2 Alice
#> 3 Jane 
#> 4 Dale 
#> 5 Pam  
#> 
#> ── Ties 
#> # A tibble: 7 × 2
#>    from    to
#>   <int> <int>
#> 1     1     2
#> 2     2     3
#> 3     1     4
#> 4     2     4
#> 5     3     4
#> 6     1     5
#> # ℹ 1 more row
…
#> 3 Tina  yes    
#> 
#> ── Ties 
#> # A tibble: 1 × 2
#>    from    to
#>   <int> <int>
#> 1     1     2
#> 
#> 
  to_components(ison_marvel_relationships)
#> [[1]]
#> # A labelled, complex, signed, undirected network of 50 nodes and 558 ties
#> 
#> ── Nodes 
#> # A tibble: 50 × 10
#>   name     Gender Appearances Attractive  Rich Intellect Omnilingual PowerOrigin
#>   <chr>    <chr>        <int>      <int> <int>     <int>       <int> <chr>      
#> 1 Abomina… Male           427          0     0         1           1 Radiation  
#> 2 Ant-Man  Male           589          1     0         1           0 Human      
#> 3 Apocaly… Male          1207          0     0         1           1 Mutant     
#> 4 Beast    Male          7609          1     0         1           0 Mutant     
#> 5 Black P… Male          2189          1     1         1           0 Human      
#> 6 Black W… Female        2907          1     0         1           0 Human      
#> # ℹ 44 more rows
#> # ℹ 2 more variables: UnarmedCombat <int>, ArmedCombat <int>
#> 
#> ── Ties 
#> # A tibble: 558 × 3
#>    from    to  sign
#>   <int> <int> <dbl>
#> 1     1     4    -1
#> 2     1    10    -1
#> 3     1    11    -1
#> 4     1    22    -1
#> 5     1    23    -1
#> 6     1    24    -1
#> # ℹ 552 more rows
…
#> ── Ties 
#> # A tibble: 0 × 3
#> # ℹ 3 variables: from <int>, to <int>, sign <dbl>
#> 
#> 
ison_adolescents %>%
  mutate_ties(wave = sample(1995:1998, 10, replace = TRUE)) %>%
  to_waves(attribute = "wave")
#> $`1995`
#> ── # The Adolescent Society ────────────────────────────────────────────────────
#> # A longitudinal, labelled, undirected network of 8 adolescents and 1
#> friendships ties over 1995 waves
#> 
#> ── Nodes 
#> # A tibble: 8 × 1
#>   name 
#>   <chr>
#> 1 Betty
#> 2 Sue  
#> 3 Alice
#> 4 Jane 
#> 5 Dale 
#> 6 Pam  
#> # ℹ 2 more rows
#> 
#> ── Ties 
#> # A tibble: 1 × 3
#>    from    to  wave
#>   <int> <int> <int>
#> 1     2     5  1995
#> 
#> 
#> $`1996`
#> ── # The Adolescent Society ────────────────────────────────────────────────────
#> # A longitudinal, labelled, undirected network of 8 adolescents and 4
#> friendships ties over 1996 waves
#> 
#> ── Nodes 
#> # A tibble: 8 × 1
#>   name 
#>   <chr>
#> 1 Betty
#> 2 Sue  
#> 3 Alice
#> 4 Jane 
#> 5 Dale 
#> 6 Pam  
#> # ℹ 2 more rows
…
#>    from    to  wave
#>   <int> <int> <int>
#> 1     1     2  1996
#> 2     3     4  1996
#> 3     4     5  1996
#> 4     7     8  1996
#> 
#> 
#> $`1997`
#> ── # The Adolescent Society ────────────────────────────────────────────────────
#> # A longitudinal, labelled, undirected network of 8 adolescents and 4
#> friendships ties over 1997 waves
#> 
#> ── Nodes 
#> # A tibble: 8 × 1
#>   name 
#>   <chr>
#> 1 Betty
#> 2 Sue  
#> 3 Alice
#> 4 Jane 
#> 5 Dale 
#> 6 Pam  
#> # ℹ 2 more rows
…
#>    from    to  wave
#>   <int> <int> <int>
#> 1     2     3  1997
#> 2     3     5  1997
#> 3     2     6  1997
#> 4     6     7  1997
#> 
#> 
#> $`1998`
#> ── # The Adolescent Society ────────────────────────────────────────────────────
#> # A longitudinal, labelled, undirected network of 8 adolescents and 1
#> friendships ties over 1998 waves
#> 
#> ── Nodes 
#> # A tibble: 8 × 1
#>   name 
#>   <chr>
#> 1 Betty
#> 2 Sue  
#> 3 Alice
#> 4 Jane 
#> 5 Dale 
#> 6 Pam  
#> # ℹ 2 more rows
…
#> ── Ties 
#> # A tibble: 1 × 3
#>    from    to  wave
#>   <int> <int> <int>
#> 1     3     6  1998
#> 
#> 
ison_adolescents %>%
  mutate_ties(time = 1:10, increment = 1) %>% 
  add_ties(c(1,2), list(time = 3, increment = -1)) %>% 
  to_slices(slice = 7)
#> # A labelled, weighted, undirected network of 8 nodes and 6 ties
#> 
#> ── Nodes 
#> # A tibble: 8 × 1
#>   name 
#>   <chr>
#> 1 Betty
#> 2 Sue  
#> 3 Alice
#> 4 Jane 
#> 5 Dale 
#> 6 Pam  
#> # ℹ 2 more rows
…
