Manipulating changes to nodes over time — manip_changes • manynet
…
    Examples

filter_changes(fict_starwars, node == "Anakin")
#> 
#> ── # Star Wars network data ────────────────────────────────────────────────────
#> # A longitudinal, labelled, complex, weighted, directed network of 110
#> characters and 563 interaction arcs over 7 waves
#> 
#> ── Nodes 
#> # A tibble: 110 × 12
#>   name            species homeworld sex   height hair_color eye_color skin_color
#>   <chr>           <chr>   <chr>     <chr>  <int> <chr>      <chr>     <chr>     
#> 1 Admiral Ackbar  Mon Ca… Mon Cala  male     180 none       orange    brown mot…
#> 2 Admiral Statura Human   Garel     male     172 black      brown     light     
#> 3 Anakin          Human   Tatooine  male     188 blond      blue      fair      
#> 4 Bail Organa     Human   Alderaan  male     191 black      brown     tan       
#> # ℹ 106 more rows
#> # ℹ 4 more variables: birth_year <dbl>, mass <dbl>, faction <chr>, active <lgl>
#> 
#> ── Changes 
#> # A tibble: 0 × 4
#> # ℹ 4 variables: time <int>, node <int>, var <chr>, value <chr>
#> 
#> ── Ties 
#> # A tibble: 563 × 4
#>    from    to weight  wave
#>   <int> <int>  <int> <int>
#> 1    80    73     11     1
#> 2    80    79     14     1
#> 3    80     3     16     1
#> 4    80   106      3     1
#> # ℹ 559 more rows
#> 
select_changes(fict_starwars, node)
#> ── # Star Wars network data ────────────────────────────────────────────────────
#> # A longitudinal, labelled, complex, weighted, directed network of 110
#> characters and 563 interaction arcs over 7 waves
#> 
#> ── Nodes 
#> # A tibble: 110 × 12
#>   name            species homeworld sex   height hair_color eye_color skin_color
#>   <chr>           <chr>   <chr>     <chr>  <int> <chr>      <chr>     <chr>     
#> 1 Admiral Ackbar  Mon Ca… Mon Cala  male     180 none       orange    brown mot…
#> 2 Admiral Statura Human   Garel     male     172 black      brown     light     
#> 3 Anakin          Human   Tatooine  male     188 blond      blue      fair      
#> 4 Bail Organa     Human   Alderaan  male     191 black      brown     tan       
#> # ℹ 106 more rows
#> # ℹ 4 more variables: birth_year <dbl>, mass <dbl>, faction <chr>, active <lgl>
#> 
#> ── Changes 
#> # A tibble: 184 × 1
#>    node
#>   <int>
#> 1     7
#> 2    10
#> 3    11
#> 4    13
#> # ℹ 180 more rows
#> 
#> ── Ties 
#> # A tibble: 563 × 4
#>    from    to weight  wave
#>   <int> <int>  <int> <int>
#> 1    80    73     11     1
#> 2    80    79     14     1
#> 3    80     3     16     1
#> 4    80   106      3     1
#> # ℹ 559 more rows
#> 
gather_changes(fict_starwars, time = 3)
#> # A tibble: 59 × 3
#> # Groups:   node, var [59]
#>     node var        value 
#>    <int> <chr>      <chr> 
#>  1     3 eye_color  yellow
#>  2     3 faction    Sith  
#>  3     3 hair_color none  
#>  4     3 height     202   
#>  5     3 mass       136   
#>  6     3 skin_color white 
#>  7     7 active     FALSE 
#>  8    10 active     FALSE 
#>  9    11 active     FALSE 
#> 10    13 active     FALSE 
#> # ℹ 49 more rows
collect_changes(fict_starwars, time = 3)
#> Warning: 'collect_changes' is deprecated.
#> Use 'gather_changes' instead.
#> See help("Deprecated") and help("manynet-deprecated").
#> # A tibble: 59 × 3
#> # Groups:   node, var [59]
#>     node var        value 
#>    <int> <chr>      <chr> 
#>  1     3 eye_color  yellow
#>  2     3 faction    Sith  
#>  3     3 hair_color none  
#>  4     3 height     202   
#>  5     3 mass       136   
#>  6     3 skin_color white 
#>  7     7 active     FALSE 
#>  8    10 active     FALSE 
#>  9    11 active     FALSE 
#> 10    13 active     FALSE 
#> # ℹ 49 more rows
…
