Modifying tie data — manip_ties • manynet
…
delete_ties(ison_adolescents, 3)
#> # The Adolescent Society
#> # A labelled, undirected network of 8 adolescents and 9 friendships ties
#> # A tibble: 8 × 1
#>   name 
#>   <chr>
#> 1 Betty
#> 2 Sue  
#> 3 Alice
#> 4 Jane 
#> 5 Dale 
#> 6 Pam  
#> # ℹ 2 more rows
#> # A tibble: 9 × 2
#>    from    to
#>   <int> <int>
#> 1     1     2
#> 2     2     3
#> 3     2     5
#> 4     3     5
#> 5     4     5
#> 6     2     6
#> # ℹ 3 more rows
delete_ties(ison_adolescents, "Alice|Sue")
#> # The Adolescent Society
#> # A labelled, undirected network of 8 adolescents and 9 friendships ties
#> # A tibble: 8 × 1
#>   name 
#>   <chr>
#> 1 Betty
#> 2 Sue  
#> 3 Alice
#> 4 Jane 
#> 5 Dale 
#> 6 Pam  
#> # ℹ 2 more rows
#> # A tibble: 9 × 2
#>    from    to
#>   <int> <int>
#> 1     1     2
#> 2     3     4
#> 3     2     5
#> 4     3     5
#> 5     4     5
#> 6     2     6
#> # ℹ 3 more rows
…
