Marking ties based on structural properties — mark_ties • manynet
…
#>   `1->5` `1->5` `1->8` `1->9` `1->9` `1->10` `1->10` `1->11` `1->12` `1->12`
#> 1 TRUE   TRUE   TRUE   TRUE   TRUE   TRUE    TRUE    TRUE    TRUE    TRUE   
#> # ... with 269 more values from this nodeset unprinted. Use `print(..., n = Inf)` to print all values.
tie_is_bridge(ison_brandes)
#>   `1-3` `2-3` `3-4` `4-5` `4-6` `5-7` `6-7` `6-8` `7-9` `8-9` `9-10` `9-11`
#> 1 TRUE  TRUE  TRUE  FALSE FALSE FALSE FALSE FALSE FALSE FALSE TRUE   TRUE  
ison_adolescents %>%
  mutate_ties(route = tie_is_path(from = "Jane", to = 7)) 
#> 
#> ── # The Adolescent Society ────────────────────────────────────────────────────
#> # A labelled, multiplex, undirected network of 8 adolescents and 10 friendships
#> ties
#> 
#> ── Nodes 
#> # A tibble: 8 × 1
#>   name 
#>   <chr>
#> 1 Betty
#> 2 Sue  
#> 3 Alice
#> 4 Jane 
#> 5 Dale 
#> 6 Pam  
#> # ℹ 2 more rows
#> 
#> ── Ties 
#> # A tibble: 10 × 3
#>    from    to route     
#>   <int> <int> <tie_mark>
#> 1     1     2 FALSE     
#> 2     2     3 FALSE     
#> 3     3     4 TRUE      
#> 4     2     5 FALSE     
#> 5     3     5 FALSE     
#> 6     4     5 FALSE     
#> # ℹ 4 more rows
…
