Measures of closeness-like centrality and centralisation — measure_central_close • manynet
…
#> ▁▃▃▁ 
#>   Betty   Sue Alice  Jane  Dale   Pam Carol  Tina
#> 1 0.714     1     1 0.714 0.857  1.14 0.714 0.429
(ec <- tie_closeness(ison_adolescents))
#>   `Betty-Sue` `Sue-Alice` `Alice-Jane` `Sue-Dale` `Alice-Dale` `Jane-Dale`
#> 1       0.562       0.692          0.6      0.643        0.643         0.5
#> # ... and 4 more values from this nodeset. Use `print_all(...)` to print all values.
ison_adolescents %>% mutate_ties(weight = ec)
#> 
#> ── # The Adolescent Society ────────────────────────────────────────────────────
#> # A labelled, weighted, undirected network of 8 adolescents and 10 friendships
#> ties
#> 
#> ── Nodes 
#> # A tibble: 8 × 1
#>   name 
#>   <chr>
#> 1 Betty
#> 2 Sue  
#> 3 Alice
#> 4 Jane 
#> 5 Dale 
#> 6 Pam  
#> # ℹ 2 more rows
#> 
#> ── Ties 
#> # A tibble: 10 × 3
#>    from    to weight    
#>   <int> <int> <tie_mesr>
#> 1     1     2 0.5625000 
#> 2     2     3 0.6923077 
#> 3     3     4 0.6000000 
#> 4     2     5 0.6428571 
#> 5     3     5 0.6428571 
#> 6     4     5 0.5000000 
#> # ℹ 4 more rows
…
