Component partitioning algorithms — member_components • manynet
…
    Examples

ison_monks %>% to_uniplex("esteem") %>%
  mutate_nodes(comp = node_in_component())
#> 
#> ── # Sampson's Monks ───────────────────────────────────────────────────────────
#> # A labelled, signed, weighted, directed network of 18 nodes and 112 arcs
#> 
#> ── Nodes 
#> # A tibble: 18 × 4
#>   name        groups        left comp      
#>   <chr>       <chr>        <dbl> <nod_mmbr>
#> 1 Romuald     Interstitial     3 B         
#> 2 Bonaventure Loyal            4 A         
#> 3 Ambrose     Loyal            4 A         
#> 4 Berthold    Loyal            4 A         
#> 5 Peter       Loyal            3 A         
#> 6 Louis       Loyal            4 A         
#> # ℹ 12 more rows
#> 
#> ── Ties 
#> # A tibble: 112 × 4
#>    from    to  sign weight
#>   <int> <int> <dbl>  <dbl>
#> 1     2     3     1      1
#> 2     2     5     1      3
#> 3     2     6     1      2
#> 4     2    16    -1      1
#> 5     2    17    -1      3
#> 6     2    18    -1      2
#> # ℹ 106 more rows
…
