Modifying networks projection — modif_project • manynet
…
    Examples

to_mode1(ison_southern_women)
#> 
#> ── # Projection of Southern Women Data ─────────────────────────────────────────
#> # A labelled, weighted, undirected network of 18 womens and 139 co-social
#> events ties
#> 
#> ── Nodes 
#> # A tibble: 18 × 3
#>   name      Surname    Title
#>   <chr>     <chr>      <chr>
#> 1 Evelyn    Jefferson  Mrs  
#> 2 Laura     Mandeville Miss 
#> 3 Theresa   Anderson   Miss 
#> 4 Brenda    Rogers     Miss 
#> 5 Charlotte McDowd     Miss 
#> 6 Frances   Anderson   Miss 
#> # ℹ 12 more rows
#> 
#> ── Ties 
#> # A tibble: 139 × 3
#>    from    to weight
#>   <int> <int>  <dbl>
#> 1     1     2      6
#> 2     1     4      6
#> 3     1     3      7
#> 4     1     5      3
#> 5     1     6      4
#> 6     1     7      3
#> # ℹ 133 more rows
#> 
to_mode2(ison_southern_women)
#> ── # Projection of Southern Women Data ─────────────────────────────────────────
#> # A labelled, weighted, undirected network of 14 social events and 66 co-women
#> ties
#> 
#> ── Nodes 
#> # A tibble: 14 × 3
#>   name  Surname Title
#>   <chr> <chr>   <chr>
#> 1 E1    6/27    NA   
#> 2 E2    3/2     NA   
#> 3 E3    4/12    NA   
#> 4 E4    9/26    NA   
#> 5 E5    2/25    NA   
#> 6 E6    5/19    NA   
#> # ℹ 8 more rows
#> 
#> ── Ties 
#> # A tibble: 66 × 3
#>    from    to weight
#>   <int> <int>  <dbl>
#> 1     1     2      2
#> 2     1     3      3
#> 3     1     4      2
#> 4     1     5      3
#> 5     1     6      3
#> 6     1     8      3
#> # ℹ 60 more rows
#> 
to_ties(ison_adolescents)
#> ── # Line graph ────────────────────────────────────────────────────────────────
#> # A labelled, undirected network of 10 nodes and 20 ties
#> 
#> ── Nodes 
#> # A tibble: 10 × 1
#>   name      
#>   <chr>     
#> 1 Betty-Sue 
#> 2 Sue-Alice 
#> 3 Alice-Jane
#> 4 Sue-Dale  
#> 5 Alice-Dale
#> 6 Jane-Dale 
#> # ℹ 4 more rows
#> 
#> ── Ties 
#> # A tibble: 20 × 2
#>    from    to
#>   <int> <int>
#> 1     1     2
#> 2     2     3
#> 3     1     4
#> 4     2     4
#> 5     4     5
#> 6     2     5
#> # ℹ 14 more rows
…
