Modifying network complexity — modif_plexity • manynet
…
    Examples

to_anti(ison_southern_women)
#> # A labelled, two-mode network of 18 nodes and 14 nodes and 163 ties
#> 
#> ── Nodes 
#> # A tibble: 32 × 2
#>   type  name     
#>   <lgl> <chr>    
#> 1 FALSE Evelyn   
#> 2 FALSE Laura    
#> 3 FALSE Theresa  
#> 4 FALSE Brenda   
#> 5 FALSE Charlotte
#> 6 FALSE Frances  
#> # ℹ 26 more rows
#> 
#> ── Ties 
#> # A tibble: 163 × 2
#>    from    to
#>   <int> <int>
#> 1     1    25
#> 2     1    28
#> 3     1    29
#> 4     1    30
#> 5     1    31
#> 6     1    32
#> # ℹ 157 more rows
…
