Motifs of diffusion — motif_diffusion • manynet
…
Wooldridge, Jeffrey M. 2010.
Econometric Analysis of Cross Section and Panel Data (2nd ed.).
Cambridge: MIT Press.

    See also

    Other motifs:
motif_brokerage,
motif_net,
motif_node

    Examples

node_by_exposure(play_diffusion(create_tree(12)))
#> # A tibble: 12 × 3
#>      t0    t1    t2
#>   <dbl> <dbl> <dbl>
#> 1     0     2     2
#> 2     1     1     3
#> 3     1     1     3
#> 4     0     1     1
#> 5     0     1     1
#> 6     0     1     1
#> # ℹ 6 more rows
…
