Tools for reformatting networks, graphs, and matrices — reformat • manynet
…
    Other manipulations: 
add,
from,
miss,
split(),
tidy,
transform()

    Examples

as_tidygraph(create_filled(5)) %>%
  mutate_ties(type = sample(1:2, 10, replace = TRUE)) %>%
  to_uniplex("type")
#> # A weighted, undirected tbl_graph with 5 nodes and 10 ties
#> # A tibble: 10 × 3
#>    from    to weight
#>   <int> <int>  <int>
#> 1     1     2      2
#> 2     1     3      2
#> 3     1     4      2
#> 4     1     5      2
#> 5     2     3      2
#> 6     2     4      2
#> # ℹ 4 more rows
…
