Modifying networks paths — to_paths • manynet
…
    Examples

to_matching(ison_southern_women)
#> # A labelled, two-mode network with 32 nodes and 14 ties
#> # A tibble: 32 × 2
#>   name      type 
#>   <chr>     <lgl>
#> 1 Evelyn    FALSE
#> 2 Laura     FALSE
#> 3 Theresa   FALSE
#> 4 Brenda    FALSE
#> 5 Charlotte FALSE
#> 6 Frances   FALSE
#> # ℹ 26 more rows
#> # A tibble: 14 × 2
#>    from    to
#>   <int> <int>
#> 1     1    19
#> 2     2    20
#> 3     3    21
#> 4     4    22
#> 5     5    23
#> 6     6    24
#> # ℹ 8 more rows
…
