Tools for transforming networks, graphs, and matrices — transform • manynet
…
    See also

    Other manipulations: 
add,
from,
miss,
reformat,
split(),
tidy

    Examples

to_mode1(ison_southern_women)
#> # A labelled, weighted, undirected tbl_graph with 18 nodes and 139 ties
#> # A tibble: 18 × 1
#>   name     
#>   <chr>    
#> 1 EVELYN   
#> 2 LAURA    
#> 3 THERESA  
#> 4 BRENDA   
#> 5 CHARLOTTE
#> 6 FRANCES  
#> # ℹ 12 more rows
#> # A tibble: 139 × 3
#>    from    to weight
#>   <int> <int>  <dbl>
#> 1     1     2      6
#> 2     1     4      6
#> 3     1     3      7
#> 4     1     5      3
#> 5     1     6      4
#> 6     1     7      3
#> # ℹ 133 more rows
to_mode2(ison_southern_women)
#> # A labelled, weighted, undirected tbl_graph with 14 nodes and 66 ties
#> # A tibble: 14 × 1
#>   name 
#>   <chr>
#> 1 E1   
#> 2 E2   
#> 3 E3   
#> 4 E4   
#> 5 E5   
#> 6 E6   
#> # ℹ 8 more rows
#> # A tibble: 66 × 3
#>    from    to weight
#>   <int> <int>  <dbl>
#> 1     1     2      2
#> 2     1     3      3
#> 3     1     4      2
#> 4     1     5      3
#> 5     1     6      3
#> 6     1     8      3
#> # ℹ 60 more rows
#autographr(to_mode1(ison_southern_women))
#autographr(to_mode2(ison_southern_women))
to_ties(ison_adolescents)
#> # A labelled, undirected tbl_graph with 10 nodes and 20 ties
#> # A tibble: 10 × 1
#>   name      
#>   <chr>     
#> 1 Betty-Sue 
#> 2 Sue-Alice 
#> 3 Alice-Jane
#> 4 Sue-Dale  
#> 5 Alice-Dale
#> 6 Jane-Dale 
#> # ℹ 4 more rows
#> # A tibble: 20 × 2
#>    from    to
#>   <int> <int>
#> 1     1     2
#> 2     2     3
#> 3     1     4
#> 4     2     4
#> 5     4     5
#> 6     2     5
#> # ℹ 14 more rows
#autographr(to_ties(ison_adolescents))
to_matching(ison_southern_women)
#> # A labelled, two-mode tbl_graph with 32 nodes and 14 ties
#> # A tibble: 32 × 2
#>   name      type 
#>   <chr>     <lgl>
#> 1 EVELYN    FALSE
#> 2 LAURA     FALSE
#> 3 THERESA   FALSE
#> 4 BRENDA    FALSE
#> 5 CHARLOTTE FALSE
#> 6 FRANCES   FALSE
#> # ℹ 26 more rows
#> # A tibble: 14 × 2
#>    from    to
#>   <int> <int>
#> 1     1    19
#> 2     2    20
#> 3     3    21
#> 4     4    22
#> 5     5    23
#> 6     6    24
#> # ℹ 8 more rows
#autographr(to_matching(ison_southern_women))
  to_eulerian(delete_nodes(ison_konigsberg, "Lomse"))
#> IGRAPH 59217d5 DN-- 3 4 -- 
#> + attr: name (v/c)
#> + edges from 59217d5 (vertex names):
#> [1] Altstadt->Kneiphof Kneiphof->Vorstadt Vorstadt->Kneiphof Kneiphof->Altstadt
  #autographr(to_eulerian(delete_nodes(ison_konigsberg, "Lomse")))
to_anti(ison_southern_women)
#> # A labelled, two-mode tbl_graph with 32 nodes and 159 ties
#> # A tibble: 32 × 2
#>   type  name     
#>   <lgl> <chr>    
#> 1 FALSE EVELYN   
#> 2 FALSE LAURA    
#> 3 FALSE THERESA  
#> 4 FALSE BRENDA   
#> 5 FALSE CHARLOTTE
#> 6 FALSE FRANCES  
#> # ℹ 26 more rows
#> # A tibble: 159 × 2
#>    from    to
#>   <int> <int>
#> 1     1    25
#> 2     1    28
#> 3     1    29
#> 4     1    30
#> 5     1    31
#> 6     1    32
#> # ℹ 153 more rows
…
